{
  "files": {
    "main.css": "/static/css/main.832776f2.chunk.css",
    "main.js": "/static/js/main.6c176284.chunk.js",
    "main.js.map": "/static/js/main.6c176284.chunk.js.map",
    "runtime-main.js": "/static/js/runtime-main.17c06fbb.js",
    "runtime-main.js.map": "/static/js/runtime-main.17c06fbb.js.map",
    "static/js/2.68876d3a.chunk.js": "/static/js/2.68876d3a.chunk.js",
    "static/js/2.68876d3a.chunk.js.map": "/static/js/2.68876d3a.chunk.js.map",
    "index.html": "/index.html",
    "precache-manifest.dbab37703ddf8f75c04fae2cf6f9892b.js": "/precache-manifest.dbab37703ddf8f75c04fae2cf6f9892b.js",
    "service-worker.js": "/service-worker.js",
    "static/css/main.832776f2.chunk.css.map": "/static/css/main.832776f2.chunk.css.map",
    "static/js/2.68876d3a.chunk.js.LICENSE.txt": "/static/js/2.68876d3a.chunk.js.LICENSE.txt"
  },
  "entrypoints": [
    "static/js/runtime-main.17c06fbb.js",
    "static/js/2.68876d3a.chunk.js",
    "static/css/main.832776f2.chunk.css",
    "static/js/main.6c176284.chunk.js"
  ]
}